ref,num,aa,N,N_score,N_cut
H2B_Xenopus_Laevis_51to200,1,?,0,NaN,NaN
H2B_Xenopus_Laevis_51to200,2,?,0,NaN,NaN
H2B_Xenopus_Laevis_51to200,3,?,0,NaN,NaN
H2B_Xenopus_Laevis_51to200,4,?,0,NaN,NaN
H2B_Xenopus_Laevis_51to200,5,?,0,NaN,NaN
H2B_Xenopus_Laevis_51to200,6,?,0,NaN,NaN
H2B_Xenopus_Laevis_51to200,7,?,0,NaN,NaN
H2B_Xenopus_Laevis_51to200,8,?,0,NaN,NaN
H2B_Xenopus_Laevis_51to200,9,?,0,NaN,NaN
H2B_Xenopus_Laevis_51to200,10,?,0,NaN,NaN
H2B_Xenopus_Laevis_51to200,11,?,0,NaN,NaN
H2B_Xenopus_Laevis_51to200,12,?,0,NaN,NaN
H2B_Xenopus_Laevis_51to200,13,?,0,NaN,NaN
H2B_Xenopus_Laevis_51to200,14,?,0,NaN,NaN
H2B_Xenopus_Laevis_51to200,15,?,0,NaN,NaN
H2B_Xenopus_Laevis_51to200,16,?,0,NaN,NaN
H2B_Xenopus_Laevis_51to200,17,?,0,NaN,NaN
H2B_Xenopus_Laevis_51to200,18,?,0,NaN,NaN
H2B_Xenopus_Laevis_51to200,19,?,0,NaN,NaN
H2B_Xenopus_Laevis_51to200,20,?,0,NaN,NaN
H2B_Xenopus_Laevis_51to200,21,?,0,NaN,NaN
H2B_Xenopus_Laevis_51to200,22,?,0,NaN,NaN
H2B_Xenopus_Laevis_51to200,23,?,0,NaN,NaN
H2B_Xenopus_Laevis_51to200,24,?,0,NaN,NaN
H2B_Xenopus_Laevis_51to200,25,?,0,NaN,NaN
H2B_Xenopus_Laevis_51to200,26,?,0,NaN,NaN
H2B_Xenopus_Laevis_51to200,27,?,0,NaN,NaN
H2B_Xenopus_Laevis_51to200,28,?,0,NaN,NaN
H2B_Xenopus_Laevis_51to200,29,?,0,NaN,NaN
H2B_Xenopus_Laevis_51to200,30,?,0,NaN,NaN
H2B_Xenopus_Laevis_51to200,31,?,0,NaN,NaN
H2B_Xenopus_Laevis_51to200,32,?,0,NaN,NaN
H2B_Xenopus_Laevis_51to200,33,?,0,NaN,NaN
H2B_Xenopus_Laevis_51to200,34,?,0,NaN,NaN
H2B_Xenopus_Laevis_51to200,35,?,0,NaN,NaN
H2B_Xenopus_Laevis_51to200,36,?,0,NaN,NaN
H2B_Xenopus_Laevis_51to200,37,?,0,NaN,NaN
H2B_Xenopus_Laevis_51to200,38,?,0,NaN,NaN
H2B_Xenopus_Laevis_51to200,39,?,0,NaN,NaN
H2B_Xenopus_Laevis_51to200,40,?,0,NaN,NaN
H2B_Xenopus_Laevis_51to200,41,?,0,NaN,NaN
H2B_Xenopus_Laevis_51to200,42,?,0,NaN,NaN
H2B_Xenopus_Laevis_51to200,43,?,0,NaN,NaN
H2B_Xenopus_Laevis_51to200,44,?,0,NaN,NaN
H2B_Xenopus_Laevis_51to200,45,V,1,1,1
H2B_Xenopus_Laevis_51to200,46,L,1,1,1
H2B_Xenopus_Laevis_51to200,47,K,1,1,1
H2B_Xenopus_Laevis_51to200,48,Q,5,4,2
H2B_Xenopus_Laevis_51to200,49,V,5,4,2
H2B_Xenopus_Laevis_51to200,50,H,5,4,2
H2B_Xenopus_Laevis_51to200,51,P,5,4,2
H2B_Xenopus_Laevis_51to200,52,D,5,4,2
H2B_Xenopus_Laevis_51to200,53,T,5,4,2
H2B_Xenopus_Laevis_51to200,54,G,5,4,2
H2B_Xenopus_Laevis_51to200,55,I,5,4,2
H2B_Xenopus_Laevis_51to200,56,S,5,4,2
H2B_Xenopus_Laevis_51to200,57,S,5,4,2
H2B_Xenopus_Laevis_51to200,58,K,5,4,2
H2B_Xenopus_Laevis_51to200,59,A,4,3,1
H2B_Xenopus_Laevis_51to200,60,M,4,3,1
H2B_Xenopus_Laevis_51to200,61,S,4,3,1
H2B_Xenopus_Laevis_51to200,62,I,4,3,1
H2B_Xenopus_Laevis_51to200,63,M,4,3,1
H2B_Xenopus_Laevis_51to200,64,N,4,3,1
H2B_Xenopus_Laevis_51to200,65,S,4,3,1
H2B_Xenopus_Laevis_51to200,66,F,4,3,1
H2B_Xenopus_Laevis_51to200,67,V,4,3,1
H2B_Xenopus_Laevis_51to200,68,N,4,3,1
H2B_Xenopus_Laevis_51to200,69,D,4,3,1
H2B_Xenopus_Laevis_51to200,70,V,4,3,1
H2B_Xenopus_Laevis_51to200,71,F,4,3,1
H2B_Xenopus_Laevis_51to200,72,E,4,3,1
H2B_Xenopus_Laevis_51to200,73,R,4,3,1
H2B_Xenopus_Laevis_51to200,74,?,0,NaN,NaN
H2B_Xenopus_Laevis_51to200,75,?,0,NaN,NaN
H2B_Xenopus_Laevis_51to200,76,?,0,NaN,NaN
H2B_Xenopus_Laevis_51to200,77,?,0,NaN,NaN
H2B_Xenopus_Laevis_51to200,78,?,0,NaN,NaN
H2B_Xenopus_Laevis_51to200,79,?,0,NaN,NaN
H2B_Xenopus_Laevis_51to200,80,?,0,NaN,NaN
H2B_Xenopus_Laevis_51to200,81,?,0,NaN,NaN
H2B_Xenopus_Laevis_51to200,82,?,0,NaN,NaN
H2B_Xenopus_Laevis_51to200,83,?,0,NaN,NaN
H2B_Xenopus_Laevis_51to200,84,?,0,NaN,NaN
H2B_Xenopus_Laevis_51to200,85,?,0,NaN,NaN
H2B_Xenopus_Laevis_51to200,86,?,0,NaN,NaN
H2B_Xenopus_Laevis_51to200,87,?,0,NaN,NaN
H2B_Xenopus_Laevis_51to200,88,?,0,NaN,NaN
H2B_Xenopus_Laevis_51to200,89,?,0,NaN,NaN
H2B_Xenopus_Laevis_51to200,90,?,0,NaN,NaN
H2B_Xenopus_Laevis_51to200,91,?,0,NaN,NaN
H2B_Xenopus_Laevis_51to200,92,?,0,NaN,NaN
H2B_Xenopus_Laevis_51to200,93,?,0,NaN,NaN
H2B_Xenopus_Laevis_51to200,94,?,0,NaN,NaN
H2B_Xenopus_Laevis_51to200,95,?,0,NaN,NaN
H2B_Xenopus_Laevis_51to200,96,?,0,NaN,NaN
H2B_Xenopus_Laevis_51to200,97,?,0,NaN,NaN
H2B_Xenopus_Laevis_51to200,98,?,0,NaN,NaN
H2B_Xenopus_Laevis_51to200,99,?,0,NaN,NaN
H2B_Xenopus_Laevis_51to200,100,?,0,NaN,NaN
H2B_Xenopus_Laevis_51to200,101,L,1,1,1
H2B_Xenopus_Laevis_51to200,102,L,1,1,1
H2B_Xenopus_Laevis_51to200,103,L,1,1,1
H2B_Xenopus_Laevis_51to200,104,P,1,1,1
H2B_Xenopus_Laevis_51to200,105,G,1,1,1
H2B_Xenopus_Laevis_51to200,106,E,1,1,1
H2B_Xenopus_Laevis_51to200,107,L,1,1,1
H2B_Xenopus_Laevis_51to200,108,A,1,1,1
H2B_Xenopus_Laevis_51to200,109,K,1,1,1
H2B_Xenopus_Laevis_51to200,110,H,3,3,3
H2B_Xenopus_Laevis_51to200,111,A,3,3,3
H2B_Xenopus_Laevis_51to200,112,V,3,3,3
H2B_Xenopus_Laevis_51to200,113,S,3,3,3
H2B_Xenopus_Laevis_51to200,114,E,3,3,3
H2B_Xenopus_Laevis_51to200,115,G,3,3,3
H2B_Xenopus_Laevis_51to200,116,T,3,3,3
H2B_Xenopus_Laevis_51to200,117,K,3,3,3
H2B_Xenopus_Laevis_51to200,118,A,3,3,3
H2B_Xenopus_Laevis_51to200,119,V,3,3,3
H2B_Xenopus_Laevis_51to200,120,T,3,3,3
H2B_Xenopus_Laevis_51to200,121,K,3,3,3
H2B_Xenopus_Laevis_51to200,122,Y,2,2,2
H2B_Xenopus_Laevis_51to200,123,T,2,2,2
H2B_Xenopus_Laevis_51to200,124,S,2,2,2
H2B_Xenopus_Laevis_51to200,125,A,2,2,2
H2B_Xenopus_Laevis_51to200,126,K,2,2,2
Human_CENP-A,1,?,0,NaN,NaN
Human_CENP-A,2,?,0,NaN,NaN
Human_CENP-A,3,?,0,NaN,NaN
Human_CENP-A,4,?,0,NaN,NaN
Human_CENP-A,5,?,0,NaN,NaN
Human_CENP-A,6,?,0,NaN,NaN
Human_CENP-A,7,?,0,NaN,NaN
Human_CENP-A,8,?,0,NaN,NaN
Human_CENP-A,9,?,0,NaN,NaN
Human_CENP-A,10,?,0,NaN,NaN
Human_CENP-A,11,?,0,NaN,NaN
Human_CENP-A,12,?,0,NaN,NaN
Human_CENP-A,13,?,0,NaN,NaN
Human_CENP-A,14,?,0,NaN,NaN
Human_CENP-A,15,R,106,21,2
Human_CENP-A,16,R,155,28,4
Human_CENP-A,17,S,187,36,5
Human_CENP-A,18,P,187,36,5
Human_CENP-A,19,S,187,36,5
Human_CENP-A,20,P,187,36,5
Human_CENP-A,21,T,187,36,5
Human_CENP-A,22,P,187,36,5
Human_CENP-A,23,T,187,36,5
Human_CENP-A,24,P,187,36,5
Human_CENP-A,25,G,187,36,5
Human_CENP-A,26,P,187,36,5
Human_CENP-A,27,S,187,36,5
Human_CENP-A,28,R,187,36,5
Human_CENP-A,29,R,18,7,3
Human_CENP-A,30,G,4,3,2
Human_CENP-A,31,P,4,3,2
Human_CENP-A,32,S,4,3,2
Human_CENP-A,33,L,4,3,2
Human_CENP-A,34,G,4,3,2
Human_CENP-A,35,A,4,3,2
Human_CENP-A,36,S,4,3,2
Human_CENP-A,37,S,4,3,2
Human_CENP-A,38,H,4,3,2
Human_CENP-A,39,Q,4,3,2
Human_CENP-A,40,H,4,3,2
Human_CENP-A,41,S,4,3,2
Human_CENP-A,42,R,4,3,2
Human_CENP-A,43,?,0,NaN,NaN
Human_CENP-A,44,?,0,NaN,NaN
Human_CENP-A,45,Q,1,1,1
Human_CENP-A,46,G,1,1,1
Human_CENP-A,47,W,1,1,1
Human_CENP-A,48,L,1,1,1
Human_CENP-A,49,K,1,1,1
Human_CENP-A,50,E,1,1,1
Human_CENP-A,51,I,1,1,1
Human_CENP-A,52,R,1,1,1
Human_CENP-A,53,K,1,1,1
Human_CENP-A,54,L,1,1,1
Human_CENP-A,55,Q,1,1,1
Human_CENP-A,56,K,1,1,1
Human_CENP-A,57,S,1,1,1
Human_CENP-A,58,T,1,1,1
Human_CENP-A,59,H,1,1,1
Human_CENP-A,60,L,1,1,1
Human_CENP-A,61,L,1,1,1
Human_CENP-A,62,I,1,1,1
Human_CENP-A,63,R,1,1,1
Human_CENP-A,64,K,1,1,1
Human_CENP-A,65,L,1,1,1
Human_CENP-A,66,P,1,1,1
Human_CENP-A,67,F,1,1,1
Human_CENP-A,68,S,1,1,1
Human_CENP-A,69,R,1,1,1
Human_CENP-A,70,?,0,NaN,NaN
Human_CENP-A,71,?,0,NaN,NaN
Human_CENP-A,72,?,0,NaN,NaN
Human_CENP-A,73,?,0,NaN,NaN
Human_CENP-A,74,?,0,NaN,NaN
Human_CENP-A,75,?,0,NaN,NaN
Human_CENP-A,76,?,0,NaN,NaN
Human_CENP-A,77,?,0,NaN,NaN
Human_CENP-A,78,?,0,NaN,NaN
Human_CENP-A,79,?,0,NaN,NaN
Human_CENP-A,80,?,0,NaN,NaN
Human_CENP-A,81,?,0,NaN,NaN
Human_CENP-A,82,?,0,NaN,NaN
Human_CENP-A,83,?,0,NaN,NaN
Human_CENP-A,84,?,0,NaN,NaN
Human_CENP-A,85,?,0,NaN,NaN
Human_CENP-A,86,?,0,NaN,NaN
Human_CENP-A,87,?,0,NaN,NaN
Human_CENP-A,88,?,0,NaN,NaN
Human_CENP-A,89,?,0,NaN,NaN
Human_CENP-A,90,?,0,NaN,NaN
Human_CENP-A,91,?,0,NaN,NaN
Human_CENP-A,92,?,0,NaN,NaN
Human_CENP-A,93,?,0,NaN,NaN
Human_CENP-A,94,?,0,NaN,NaN
Human_CENP-A,95,?,0,NaN,NaN
Human_CENP-A,96,?,0,NaN,NaN
Human_CENP-A,97,?,0,NaN,NaN
Human_CENP-A,98,?,0,NaN,NaN
Human_CENP-A,99,?,0,NaN,NaN
Human_CENP-A,100,?,0,NaN,NaN
Human_CENP-A,101,?,0,NaN,NaN
Human_CENP-A,102,?,0,NaN,NaN
Human_CENP-A,103,?,0,NaN,NaN
Human_CENP-A,104,?,0,NaN,NaN
Human_CENP-A,105,?,0,NaN,NaN
Human_CENP-A,106,?,0,NaN,NaN
Human_CENP-A,107,?,0,NaN,NaN
Human_CENP-A,108,?,0,NaN,NaN
Human_CENP-A,109,?,0,NaN,NaN
Human_CENP-A,110,?,0,NaN,NaN
Human_CENP-A,111,?,0,NaN,NaN
Human_CENP-A,112,?,0,NaN,NaN
Human_CENP-A,113,?,0,NaN,NaN
Human_CENP-A,114,?,0,NaN,NaN
Human_CENP-A,115,?,0,NaN,NaN
Human_CENP-A,116,?,0,NaN,NaN
Human_CENP-A,117,?,0,NaN,NaN
Human_CENP-A,118,?,0,NaN,NaN
Human_CENP-A,119,V,1,1,1
Human_CENP-A,120,T,1,1,1
Human_CENP-A,121,L,1,1,1
Human_CENP-A,122,F,1,1,1
Human_CENP-A,123,P,1,1,1
Human_CENP-A,124,K,1,1,1
Human_CENP-A,125,D,1,1,1
Human_CENP-A,126,V,1,1,1
Human_CENP-A,127,Q,1,1,1
Human_CENP-A,128,L,1,1,1
Human_CENP-A,129,A,1,1,1
Human_CENP-A,130,R,1,1,1
H2B_Xenopus_Laevis_1to50,1,?,0,NaN,NaN
H2B_Xenopus_Laevis_1to50,2,?,0,NaN,NaN
H2B_Xenopus_Laevis_1to50,3,?,0,NaN,NaN
H2B_Xenopus_Laevis_1to50,4,?,0,NaN,NaN
H2B_Xenopus_Laevis_1to50,5,?,0,NaN,NaN
H2B_Xenopus_Laevis_1to50,6,?,0,NaN,NaN
H2B_Xenopus_Laevis_1to50,7,?,0,NaN,NaN
H2B_Xenopus_Laevis_1to50,8,?,0,NaN,NaN
H2B_Xenopus_Laevis_1to50,9,?,0,NaN,NaN
H2B_Xenopus_Laevis_1to50,10,?,0,NaN,NaN
H2B_Xenopus_Laevis_1to50,11,?,0,NaN,NaN
H2B_Xenopus_Laevis_1to50,12,?,0,NaN,NaN
H2B_Xenopus_Laevis_1to50,13,?,0,NaN,NaN
H2B_Xenopus_Laevis_1to50,14,?,0,NaN,NaN
H2B_Xenopus_Laevis_1to50,15,?,0,NaN,NaN
H2B_Xenopus_Laevis_1to50,16,?,0,NaN,NaN
H2B_Xenopus_Laevis_1to50,17,K,2,2,2
H2B_Xenopus_Laevis_1to50,18,A,2,2,2
H2B_Xenopus_Laevis_1to50,19,V,2,2,2
H2B_Xenopus_Laevis_1to50,20,T,2,2,2
H2B_Xenopus_Laevis_1to50,21,K,2,2,2
H2B_Xenopus_Laevis_1to50,22,T,2,2,2
H2B_Xenopus_Laevis_1to50,23,Q,2,2,2
H2B_Xenopus_Laevis_1to50,24,K,2,2,2
H2B_Xenopus_Laevis_1to50,25,K,1,1,1
H2B_Xenopus_Laevis_1to50,26,D,1,1,1
H2B_Xenopus_Laevis_1to50,27,G,1,1,1
H2B_Xenopus_Laevis_1to50,28,K,1,1,1
H2B_Xenopus_Laevis_1to50,29,K,1,1,1
H2B_Xenopus_Laevis_1to50,30,?,0,NaN,NaN
H2B_Xenopus_Laevis_1to50,31,?,0,NaN,NaN
H2B_Xenopus_Laevis_1to50,32,?,0,NaN,NaN
H2B_Xenopus_Laevis_1to50,33,S,1,1,1
H2B_Xenopus_Laevis_1to50,34,R,1,1,1
H2B_Xenopus_Laevis_1to50,35,K,5,5,3
H2B_Xenopus_Laevis_1to50,36,E,6,6,4
H2B_Xenopus_Laevis_1to50,37,S,6,6,4
H2B_Xenopus_Laevis_1to50,38,Y,6,6,4
H2B_Xenopus_Laevis_1to50,39,A,6,6,4
H2B_Xenopus_Laevis_1to50,40,I,6,6,4
H2B_Xenopus_Laevis_1to50,41,Y,6,6,4
H2B_Xenopus_Laevis_1to50,42,V,6,6,4
H2B_Xenopus_Laevis_1to50,43,Y,6,6,4
H2B_Xenopus_Laevis_1to50,44,K,6,6,4
H2B_Xenopus_Laevis_1to50,45,V,4,4,3
H2B_Xenopus_Laevis_1to50,46,L,4,4,3
H2B_Xenopus_Laevis_1to50,47,K,4,4,3
H2B_Xenopus_Laevis_1to50,48,Q,5,4,2
H2B_Xenopus_Laevis_1to50,49,V,5,4,2
H2B_Xenopus_Laevis_1to50,50,H,5,4,2
H2B_Xenopus_Laevis_1to50,51,P,5,4,2
H2B_Xenopus_Laevis_1to50,52,D,5,4,2
H2B_Xenopus_Laevis_1to50,53,T,5,4,2
H2B_Xenopus_Laevis_1to50,54,G,5,4,2
H2B_Xenopus_Laevis_1to50,55,I,5,4,2
H2B_Xenopus_Laevis_1to50,56,S,5,4,2
H2B_Xenopus_Laevis_1to50,57,S,5,4,2
H2B_Xenopus_Laevis_1to50,58,K,5,4,2
H2B_Xenopus_Laevis_1to50,59,A,4,3,1
H2B_Xenopus_Laevis_1to50,60,M,4,3,1
H2B_Xenopus_Laevis_1to50,61,S,4,3,1
H2B_Xenopus_Laevis_1to50,62,I,4,3,1
H2B_Xenopus_Laevis_1to50,63,M,4,3,1
H2B_Xenopus_Laevis_1to50,64,N,4,3,1
H2B_Xenopus_Laevis_1to50,65,S,4,3,1
H2B_Xenopus_Laevis_1to50,66,F,4,3,1
H2B_Xenopus_Laevis_1to50,67,V,4,3,1
H2B_Xenopus_Laevis_1to50,68,N,4,3,1
H2B_Xenopus_Laevis_1to50,69,D,4,3,1
H2B_Xenopus_Laevis_1to50,70,V,4,3,1
H2B_Xenopus_Laevis_1to50,71,F,4,3,1
H2B_Xenopus_Laevis_1to50,72,E,4,3,1
H2B_Xenopus_Laevis_1to50,73,R,4,3,1
